<?xml version="1.0" encoding="UTF-8" standalone="no"?>
<svg
   xmlns:dc="http://purl.org/dc/elements/1.1/"
   xmlns:cc="http://creativecommons.org/ns#"
   xmlns:rdf="http://www.w3.org/1999/02/22-rdf-syntax-ns#"
   xmlns:svg="http://www.w3.org/2000/svg"
   xmlns="http://www.w3.org/2000/svg"
   xmlns:sodipodi="http://sodipodi.sourceforge.net/DTD/sodipodi-0.dtd"
   xmlns:inkscape="http://www.inkscape.org/namespaces/inkscape"
   viewBox="0 0 256 256"
   id="svg4136"
   version="1.1"
   inkscape:version="0.91 r13725"
   sodipodi:docname="GPM_Logo_small.svg"
   width="256"
   height="256">
  <metadata
     id="metadata4166">
    <rdf:RDF>
      <cc:Work
         rdf:about="">
        <dc:format>image/svg+xml</dc:format>
        <dc:type
           rdf:resource="http://purl.org/dc/dcmitype/StillImage" />
        <dc:title>GPM_Logo</dc:title>
      </cc:Work>
    </rdf:RDF>
  </metadata>
  <sodipodi:namedview
     pagecolor="#ffffff"
     bordercolor="#666666"
     borderopacity="1"
     objecttolerance="10"
     gridtolerance="10"
     guidetolerance="10"
     inkscape:pageopacity="0"
     inkscape:pageshadow="2"
     inkscape:window-width="1920"
     inkscape:window-height="1017"
     id="namedview4164"
     showgrid="false"
     inkscape:zoom="2.3908837"
     inkscape:cx="200.95729"
     inkscape:cy="125.75498"
     inkscape:window-x="-8"
     inkscape:window-y="-8"
     inkscape:window-maximized="1"
     inkscape:current-layer="svg4136" />
  <defs
     id="defs4138">
    <style
       id="style4140">.cls-1{fill:#f7e308;}.cls-2{fill:#050505;}.cls-3{fill:#fff;}</style>
    <clipPath
       clipPathUnits="userSpaceOnUse"
       id="clipPath5398">
      <rect
         style="opacity:1;fill:#022140;fill-opacity:1;stroke:none;stroke-width:10.35599995;stroke-linecap:round;stroke-linejoin:round;stroke-miterlimit:4;stroke-dasharray:none;stroke-dashoffset:0;stroke-opacity:1"
         id="rect5400"
         width="178.63374"
         height="169.16969"
         x="98.189407"
         y="72.624519"
         ry="0.839369" />
    </clipPath>
  </defs>
  <title
     id="title4142">GPM_Logo</title>
  <rect
     style="opacity:1;fill:#022140;fill-opacity:1;stroke:#265077;stroke-width:18.48442841;stroke-linecap:round;stroke-linejoin:bevel;stroke-miterlimit:0;stroke-dasharray:none;stroke-dashoffset:0;stroke-opacity:1"
     id="rect5414"
     width="236.60071"
     height="236.5751"
     x="9.6996498"
     y="9.7263088"
     ry="0.77576286" />
  <text
     xml:space="preserve"
     style="font-style:normal;font-variant:normal;font-weight:bold;font-stretch:normal;font-size:256.2258606px;line-height:125%;font-family:Gadugi;-inkscape-font-specification:'Gadugi Bold';letter-spacing:0px;word-spacing:0px;fill:#ffffff;fill-opacity:1;stroke:none;stroke-width:1px;stroke-linecap:butt;stroke-linejoin:miter;stroke-opacity:1"
     x="39.484478"
     y="217.65538"
     id="text5442"
     sodipodi:linespacing="125%"><tspan
       sodipodi:role="line"
       id="tspan5444"
       x="39.484478"
       y="217.65538">G</tspan></text>
  <text
     xml:space="preserve"
     style="font-style:normal;font-weight:normal;font-size:40px;line-height:125%;font-family:sans-serif;letter-spacing:0px;word-spacing:0px;fill:#000000;fill-opacity:1;stroke:none;stroke-width:1px;stroke-linecap:butt;stroke-linejoin:miter;stroke-opacity:1"
     x="226.27615"
     y="59.838223"
     id="text5446"
     sodipodi:linespacing="125%"><tspan
       sodipodi:role="line"
       id="tspan5448"
       x="226.27615"
       y="59.838223"></tspan></text>
</svg>
